…
## Examples

``` r
get_population_data(
  number_fso = "px-x-0102010000_101",
  year_first = 2020,
  year_last = 2023,
  age_fert_min = 15,
  age_fert_max = 49,
  spatial_code = c("0261", "4566", "4001"),
  spatial_unit = c("Stadt Zuerich", "Frauenfeld", "Aarau"),
  binational = TRUE
)
#> # A tibble: 840 × 5
#>     year spatial_unit nat     age n_pop
#>    <dbl> <chr>        <chr> <dbl> <dbl>
#>  1  2020 Aarau        ch       15    64
#>  2  2020 Aarau        ch       16    69
#>  3  2020 Aarau        ch       17    72
#>  4  2020 Aarau        ch       18    64
#>  5  2020 Aarau        ch       19    68
#>  6  2020 Aarau        ch       20    69
#>  7  2020 Aarau        ch       21    78
#>  8  2020 Aarau        ch       22    84
#>  9  2020 Aarau        ch       23    89
#> 10  2020 Aarau        ch       24   134
#> # ℹ 830 more rows
```
